\relax 
\catcode `"\active 
\citation{coulouris2013sistemas}
\citation{coulouris2013sistemas}
\select@language{portuges}
\@writefile{toc}{\select@language{portuges}}
\@writefile{lof}{\select@language{portuges}}
\@writefile{lot}{\select@language{portuges}}
\@writefile{toc}{\contentsline {section}{\numberline {1}Introdu\IeC {\c c}\IeC {\~a}o}{1}}
\citation{santin2002modelo}
\citation{ferrari1999estudo}
\citation{coulouris2013sistemas}
\citation{coulouris2013sistemas}
\@writefile{toc}{\contentsline {section}{\numberline {2}Trabalhos Relacionados}{2}}
\newlabel{sec:trabrel}{{2}{2}}
\@writefile{toc}{\contentsline {section}{\numberline {3}A Escalabilidade em Sistemas Distribu\IeC {\'\i }dos}{2}}
\newlabel{sec:proposta}{{3}{2}}
\citation{coulouris2013sistemas}
\@writefile{toc}{\contentsline {subsection}{\numberline {3.1}Problemas da Escalabilidade}{3}}
\citation{coulouris2013sistemas}
\@writefile{toc}{\contentsline {subsection}{\numberline {3.2}T\IeC {\'e}cnicas de Escalabilidade}{4}}
\@writefile{toc}{\contentsline {subsection}{\numberline {3.3}Desafios da escalabilidade}{4}}
\citation{coulouris2013sistemas}
\bibstyle{sbc}
\bibdata{biblio/bibliografia}
\bibcite{coulouris2013sistemas}{Coulouris et~al. 2013}
\bibcite{ferrari1999estudo}{FERRARI 1999}
\bibcite{santin2002modelo}{Santin et~al. 2002}
\@writefile{toc}{\contentsline {section}{\numberline {4}Conclus\IeC {\~a}o}{5}}
\newlabel{sec:conclusao}{{4}{5}}
